{
  "apps" : [{
    "name"        : "chat-index-prod",
    "script"      : "index.js",
    "args"        : ["prod"],
    "node_args"   : "--harmony",
    "merge_logs"  : true,
    "cwd"         : "dist/src",
    "env": {
      "NODE_ENV": "production"
    }
  }]
}
